{
    "homepage": "https://ryochan7.github.io/ds4windows-site/",
    "description": "Portable program that allows you to get the best experience while using a DualShock 4 on your PC.",
    "version": "1.7.0",
    "architecture": {
        "64bit": {
            "url": "https://github.com/Ryochan7/DS4Windows/releases/download/v1.7.0/DS4Windows_1.7.0_x64.zip",
            "hash": "5c9ee10377cf45424c9d9a42c1c81a737cb9ce126ade1f1d79f1d932ab61e1cd"
        },
        "32bit": {
            "url": "https://github.com/Ryochan7/DS4Windows/releases/download/v1.7.0/DS4Windows_1.7.0_x86.zip",
            "hash": "374f72cc239b7e3ccfedf3d4cf99b338a8707ba82b8c897ba4c2835046872a5e"
        }
    },
    "bin": "DS4Windows.exe",
    "extract_dir": "DS4Windows",
    "post_install": "If (Test-Path \"$dir\\DS4Updater.exe\") { Remove-Item \"$dir\\DS4Updater.exe\" -Force }",
    "shortcuts": [
        [
            "DS4Windows.exe",
            "DS4Windows"
        ]
    ],
    "checkver": {
        "github": "https://github.com/Ryochan7/DS4Windows"
    },
    "autoupdate": {
        "architecture": {
            "64bit": {
                "url": "https://github.com/Ryochan7/DS4Windows/releases/download/v$version/DS4Windows_$version_x64.zip"
            },
            "32bit": {
                "url": "https://github.com/Ryochan7/DS4Windows/releases/download/v$version/DS4Windows_$version_x86.zip"
            }
        }
    }
}
